[
  {
    "name": "A",
    "numberOfSeats": 7
  },
  {
    "name": "B",
    "numberOfSeats": 7
  },
  {
    "name": "C",
    "numberOfSeats": 7
  },
  {
    "name": "D",
    "numberOfSeats": 7
  },
  {
    "name": "E",
    "numberOfSeats": 7
  },
  {
    "name": "F",
    "numberOfSeats": 7
  },
  {
    "name": "G",
    "numberOfSeats": 7
  },
  {
    "name": "H",
    "numberOfSeats": 7
  },
  {
    "name": "I",
    "numberOfSeats": 7
  },
  {
    "name": "J",
    "numberOfSeats": 7
  }
]